{
  "project_info": {
    "project_number": "466105498621",
    "firebase_url": "https://plastiq-9bfee.firebaseio.com",
    "project_id": "plastiq-9bfee",
    "storage_bucket": "plastiq-9bfee.appspot.com"
  },
  "client": [
    {
      "client_info": {
        "mobilesdk_app_id": "1:466105498621:android:2ab44031abc1a49cdd7794",
        "android_client_info": {
          "package_name": "com.plastiq_mobile_rn"
        }
      },
      "oauth_client": [
        {
          "client_id": "466105498621-5sdv367kla4a8taieguj3s0ra7fkvt3g.apps.googleusercontent.com",
          "client_type": 3
        }
      ],
      "api_key": [
        {
          "current_key": "AIzaSyDudjiTHoDxuvb8QvqQBhJQORSpC5gS4Zc"
        }
      ],
      "services": {
        "appinvite_service": {
          "other_platform_oauth_client": [
            {
              "client_id": "466105498621-5sdv367kla4a8taieguj3s0ra7fkvt3g.apps.googleusercontent.com",
              "client_type": 3
            },
            {
              "client_id": "466105498621-aoo2o2t96957n79s21rotdp7n94ujcl5.apps.googleusercontent.com",
              "client_type": 2,
              "ios_info": {
                "bundle_id": "it.plastiq",
                "app_store_id": "1471591272"
              }
            }
          ]
        }
      }
    }
  ],
  "configuration_version": "1"
}